Library\Bee\artifacts\mvdfrm\Unity.2D.Animation.Editor.ref.dll_6F7C2295294E94BA.mvfrm
Library\Bee\artifacts\mvdfrm\Unity.2D.Animation.Runtime.ref.dll_6A9742D7D2A514D1.mvfrm
Library\Bee\artifacts\mvdfrm\Unity.2D.Common.Editor.ref.dll_BAD482825BE3B5C3.mvfrm
Library\Bee\artifacts\mvdfrm\Unity.2D.Common.Runtime.ref.dll_5E08D46C48596AB8.mvfrm
Library\Bee\artifacts\mvdfrm\Unity.2D.IK.Editor.ref.dll_DD8AEA9FF5B5A29C.mvfrm
Library\Bee\artifacts\mvdfrm\Unity.2D.IK.Runtime.ref.dll_7D42ADCA95AE0FCF.mvfrm
Library\Bee\artifacts\mvdfrm\Unity.2D.Path.Editor.ref.dll_4FF7F22316E01AF9.mvfrm
Library\Bee\artifacts\mvdfrm\Unity.2D.PixelPerfect.Editor.ref.dll_E466AE8A41540617.mvfrm
Library\Bee\artifacts\mvdfrm\Unity.2D.PixelPerfect.ref.dll_0935F2AF8B33D33A.mvfrm
Library\Bee\artifacts\mvdfrm\Unity.2D.Psdimporter.Editor.ref.dll_6C5441053350E62B.mvfrm
Library\Bee\artifacts\mvdfrm\Unity.2D.Sprite.Editor.ref.dll_DB357F30E4DD28C9.mvfrm
Library\Bee\artifacts\mvdfrm\Unity.2D.SpriteShape.Editor.ref.dll_CFD83DA2701D7242.mvfrm
Library\Bee\artifacts\mvdfrm\Unity.2D.SpriteShape.Runtime.ref.dll_513AACB120A0FAC9.mvfrm
Library\Bee\artifacts\mvdfrm\Unity.2D.Tilemap.Editor.ref.dll_29FB535B4457CF60.mvfrm
Library\Bee\artifacts\mvdfrm\Unity.Burst.Editor.ref.dll_CA80C28B0693F72A.mvfrm
Library\Bee\artifacts\mvdfrm\Unity.Burst.ref.dll_81AAA01BEB5B2CF7.mvfrm
Library\Bee\artifacts\mvdfrm\Unity.InternalAPIEditorBridge.001.ref.dll_A179559E2523052D.mvfrm
Library\Bee\artifacts\mvdfrm\Unity.InternalAPIEngineBridge.001.ref.dll_93F40E488A31EC72.mvfrm
Library\Bee\artifacts\mvdfrm\Unity.Mathematics.Editor.ref.dll_ECAC38F7498AB804.mvfrm
Library\Bee\artifacts\mvdfrm\Unity.Mathematics.ref.dll_0FB64E2CC5C7A67D.mvfrm
Library\Bee\artifacts\mvdfrm\Unity.PlasticSCM.Editor.ref.dll_0C0A30695FB91F25.mvfrm
Library\Bee\artifacts\mvdfrm\Unity.Rider.Editor.ref.dll_82DD26602537B210.mvfrm
Library\Bee\artifacts\mvdfrm\Unity.TextMeshPro.Editor.ref.dll_68296F40356AA447.mvfrm
Library\Bee\artifacts\mvdfrm\Unity.TextMeshPro.ref.dll_AB6A9C4EF63D120A.mvfrm
Library\Bee\artifacts\mvdfrm\Unity.Timeline.Editor.ref.dll_8DA9371581BDD901.mvfrm
Library\Bee\artifacts\mvdfrm\Unity.Timeline.ref.dll_F8249BBF1A1F59B0.mvfrm
Library\Bee\artifacts\mvdfrm\Unity.VSCode.Editor.ref.dll_9C78B8C6301F2728.mvfrm
Library\Bee\artifacts\mvdfrm\Unity.VisualStudio.Editor.ref.dll_08D7AA09E147CB5C.mvfrm
Library\Bee\artifacts\mvdfrm\UnityEditor.UI.ref.dll_E2A091BC59174F16.mvfrm
Library\Bee\artifacts\mvdfrm\UnityEngine.UI.ref.dll_9F0668175F397781.mvfrm
Library\Bee\artifacts\mvdfrm\UnityEditor.CoreModule.dll_DDA4214EB9E836F0.mvfrm
Library\Bee\artifacts\mvdfrm\UnityEditor.DeviceSimulatorModule.dll_4533D3E7432D59D1.mvfrm
Library\Bee\artifacts\mvdfrm\UnityEditor.DiagnosticsModule.dll_CD5D1F07EDBD2FDF.mvfrm
Library\Bee\artifacts\mvdfrm\UnityEditor.dll_7832EC8740CCBFA5.mvfrm
Library\Bee\artifacts\mvdfrm\UnityEditor.GraphViewModule.dll_59218EB91B588DD6.mvfrm
Library\Bee\artifacts\mvdfrm\UnityEditor.PackageManagerUIModule.dll_4291E7274995184C.mvfrm
Library\Bee\artifacts\mvdfrm\UnityEditor.QuickSearchModule.dll_586CA01546942C38.mvfrm
Library\Bee\artifacts\mvdfrm\UnityEditor.SceneTemplateModule.dll_2F5E614B5C15A1B9.mvfrm
Library\Bee\artifacts\mvdfrm\UnityEditor.TextCoreFontEngineModule.dll_6E2BB7AAE065FA6E.mvfrm
Library\Bee\artifacts\mvdfrm\UnityEditor.TextCoreTextEngineModule.dll_B613EE1C6FE9B38C.mvfrm
Library\Bee\artifacts\mvdfrm\UnityEditor.UIBuilderModule.dll_ADAA3BD58E11070A.mvfrm
Library\Bee\artifacts\mvdfrm\UnityEditor.UIElementsModule.dll_657E093407AF802C.mvfrm
Library\Bee\artifacts\mvdfrm\UnityEditor.UIElementsSamplesModule.dll_0EB5F0C8235B4801.mvfrm
Library\Bee\artifacts\mvdfrm\UnityEditor.UIServiceModule.dll_E69C4D3877485724.mvfrm
Library\Bee\artifacts\mvdfrm\UnityEditor.UnityConnectModule.dll_92978644A9D85DA6.mvfrm
Library\Bee\artifacts\mvdfrm\UnityEngine.AccessibilityModule.dll_6203CCE25C8BC956.mvfrm
Library\Bee\artifacts\mvdfrm\UnityEngine.AIModule.dll_2844CAC9E5508744.mvfrm
Library\Bee\artifacts\mvdfrm\UnityEngine.AndroidJNIModule.dll_E3C6F20750CEEF02.mvfrm
Library\Bee\artifacts\mvdfrm\UnityEngine.AnimationModule.dll_27A70AE1F5B5627C.mvfrm
Library\Bee\artifacts\mvdfrm\UnityEngine.ARModule.dll_E1B78FCD426DE60D.mvfrm
Library\Bee\artifacts\mvdfrm\UnityEngine.AssetBundleModule.dll_9C55D306A8FAE12A.mvfrm
Library\Bee\artifacts\mvdfrm\UnityEngine.AudioModule.dll_61EFBC4ED247C46E.mvfrm
Library\Bee\artifacts\mvdfrm\UnityEngine.ClothModule.dll_C8D81949AC64A352.mvfrm
Library\Bee\artifacts\mvdfrm\UnityEngine.ClusterInputModule.dll_1233FB5A5B60306C.mvfrm
Library\Bee\artifacts\mvdfrm\UnityEngine.ClusterRendererModule.dll_4AE09658B2E86755.mvfrm
Library\Bee\artifacts\mvdfrm\UnityEngine.CoreModule.dll_00C4F4A161EDA21B.mvfrm
Library\Bee\artifacts\mvdfrm\UnityEngine.CrashReportingModule.dll_B4B5810F01BF1493.mvfrm
Library\Bee\artifacts\mvdfrm\UnityEngine.DirectorModule.dll_0C1E428F7E9C1EF8.mvfrm
Library\Bee\artifacts\mvdfrm\UnityEngine.dll_AAD7335F9F404C8A.mvfrm
Library\Bee\artifacts\mvdfrm\UnityEngine.DSPGraphModule.dll_116FA3F8F0FCF019.mvfrm
Library\Bee\artifacts\mvdfrm\UnityEngine.GameCenterModule.dll_0E143C22170FDFF3.mvfrm
Library\Bee\artifacts\mvdfrm\UnityEngine.GIModule.dll_C08113D780FF6F5E.mvfrm
Library\Bee\artifacts\mvdfrm\UnityEngine.GridModule.dll_DE36108F7A423812.mvfrm
Library\Bee\artifacts\mvdfrm\UnityEngine.HotReloadModule.dll_A8EFC8E7D0E87DFE.mvfrm
Library\Bee\artifacts\mvdfrm\UnityEngine.ImageConversionModule.dll_B6D29409350D1F49.mvfrm
Library\Bee\artifacts\mvdfrm\UnityEngine.IMGUIModule.dll_9A4F5BB59879584F.mvfrm
Library\Bee\artifacts\mvdfrm\UnityEngine.InputLegacyModule.dll_2D9AEE2540EC971B.mvfrm
Library\Bee\artifacts\mvdfrm\UnityEngine.InputModule.dll_C86583FF487FE912.mvfrm
Library\Bee\artifacts\mvdfrm\UnityEngine.JSONSerializeModule.dll_C21B561E5BC729E0.mvfrm
Library\Bee\artifacts\mvdfrm\UnityEngine.LocalizationModule.dll_5080C5ACF2DC2365.mvfrm
Library\Bee\artifacts\mvdfrm\UnityEngine.ParticleSystemModule.dll_07C7CA5B6FD0A021.mvfrm
Library\Bee\artifacts\mvdfrm\UnityEngine.PerformanceReportingModule.dll_ADD28E67E3A811DA.mvfrm
Library\Bee\artifacts\mvdfrm\UnityEngine.Physics2DModule.dll_744CFAD296B25A11.mvfrm
Library\Bee\artifacts\mvdfrm\UnityEngine.PhysicsModule.dll_1C9B136EDAE268FF.mvfrm
Library\Bee\artifacts\mvdfrm\UnityEngine.ProfilerModule.dll_3E647BC617F5A605.mvfrm
Library\Bee\artifacts\mvdfrm\UnityEngine.RuntimeInitializeOnLoadManagerInitializerModule.dll_228AD60361B16CDA.mvfrm
Library\Bee\artifacts\mvdfrm\UnityEngine.ScreenCaptureModule.dll_DC0303A370335642.mvfrm
Library\Bee\artifacts\mvdfrm\UnityEngine.SharedInternalsModule.dll_3AE3D2DEAC3B1A99.mvfrm
Library\Bee\artifacts\mvdfrm\UnityEngine.SpriteMaskModule.dll_F740AEB2387F756D.mvfrm
Library\Bee\artifacts\mvdfrm\UnityEngine.SpriteShapeModule.dll_B5B700615E9D1934.mvfrm
Library\Bee\artifacts\mvdfrm\UnityEngine.StreamingModule.dll_DC3BF832453D19BA.mvfrm
Library\Bee\artifacts\mvdfrm\UnityEngine.SubstanceModule.dll_B8E70C7B909017C8.mvfrm
Library\Bee\artifacts\mvdfrm\UnityEngine.SubsystemsModule.dll_61EE151406C75D80.mvfrm
Library\Bee\artifacts\mvdfrm\UnityEngine.TerrainModule.dll_36E18EDDB0A0B1ED.mvfrm
Library\Bee\artifacts\mvdfrm\UnityEngine.TerrainPhysicsModule.dll_0842732E89139AAE.mvfrm
Library\Bee\artifacts\mvdfrm\UnityEngine.TextCoreFontEngineModule.dll_EC8B32FDF363B939.mvfrm
Library\Bee\artifacts\mvdfrm\UnityEngine.TextCoreTextEngineModule.dll_3473696F82E77257.mvfrm
Library\Bee\artifacts\mvdfrm\UnityEngine.TextRenderingModule.dll_054275AE276AD637.mvfrm
Library\Bee\artifacts\mvdfrm\UnityEngine.TilemapModule.dll_D5DDF65EC85D92F6.mvfrm
Library\Bee\artifacts\mvdfrm\UnityEngine.TLSModule.dll_43CD397FFB17E213.mvfrm
Library\Bee\artifacts\mvdfrm\UnityEngine.UIElementsModule.dll_662C767C09F39977.mvfrm
Library\Bee\artifacts\mvdfrm\UnityEngine.UIElementsNativeModule.dll_8D0B9BBCBB0D886E.mvfrm
Library\Bee\artifacts\mvdfrm\UnityEngine.UIModule.dll_23B868F741978CF0.mvfrm
Library\Bee\artifacts\mvdfrm\UnityEngine.UmbraModule.dll_DCC468675F6E6FE1.mvfrm
Library\Bee\artifacts\mvdfrm\UnityEngine.UNETModule.dll_936B3C8AAEFC9794.mvfrm
Library\Bee\artifacts\mvdfrm\UnityEngine.UnityAnalyticsModule.dll_27673B251BF7F21D.mvfrm
Library\Bee\artifacts\mvdfrm\UnityEngine.UnityConnectModule.dll_7FF70A53A4605E51.mvfrm
Library\Bee\artifacts\mvdfrm\UnityEngine.UnityCurlModule.dll_5AC3AC1365C95469.mvfrm
Library\Bee\artifacts\mvdfrm\UnityEngine.UnityTestProtocolModule.dll_CA78A6BA7D569D57.mvfrm
Library\Bee\artifacts\mvdfrm\UnityEngine.UnityWebRequestAssetBundleModule.dll_BA7E37D8B410E2AE.mvfrm
Library\Bee\artifacts\mvdfrm\UnityEngine.UnityWebRequestAudioModule.dll_25CEE2466A12DC72.mvfrm
Library\Bee\artifacts\mvdfrm\UnityEngine.UnityWebRequestModule.dll_C8719BB34001B9C8.mvfrm
Library\Bee\artifacts\mvdfrm\UnityEngine.UnityWebRequestTextureModule.dll_FA4C98D754815487.mvfrm
Library\Bee\artifacts\mvdfrm\UnityEngine.UnityWebRequestWWWModule.dll_FF35AECB72A72EC3.mvfrm
Library\Bee\artifacts\mvdfrm\UnityEngine.VehiclesModule.dll_83E13C0EF8C5EE93.mvfrm
Library\Bee\artifacts\mvdfrm\UnityEngine.VFXModule.dll_C4ABD1EED1854B80.mvfrm
Library\Bee\artifacts\mvdfrm\UnityEngine.VideoModule.dll_86F940B994D9E013.mvfrm
Library\Bee\artifacts\mvdfrm\UnityEngine.VirtualTexturingModule.dll_B198502B93BC08F9.mvfrm
Library\Bee\artifacts\mvdfrm\UnityEngine.VRModule.dll_768A8F7CE3521268.mvfrm
Library\Bee\artifacts\mvdfrm\UnityEngine.WindModule.dll_7713CFC9F3242084.mvfrm
Library\Bee\artifacts\mvdfrm\UnityEngine.XRModule.dll_A94952816C8C5FC6.mvfrm
Library\Bee\artifacts\mvdfrm\Unity.Android.Gradle.dll_27F4C41CB2C3F8D8.mvfrm
Library\Bee\artifacts\mvdfrm\Unity.Android.Types.dll_C710AB8298D044E4.mvfrm
Library\Bee\artifacts\mvdfrm\UnityEditor.iOS.Extensions.Common.dll_F8138512DD512675.mvfrm
Library\Bee\artifacts\mvdfrm\UnityEditor.iOS.Extensions.Xcode.dll_D55BDA36DC39A5A7.mvfrm
Library\Bee\artifacts\mvdfrm\Unity.Burst.Cecil.dll_E7976A267B9FFC8B.mvfrm
Library\Bee\artifacts\mvdfrm\Unity.Burst.Cecil.Mdb.dll_C60C80E3CDD68A88.mvfrm
Library\Bee\artifacts\mvdfrm\Unity.Burst.Cecil.Pdb.dll_DD5EF9534C8B8C0B.mvfrm
Library\Bee\artifacts\mvdfrm\Unity.Burst.Cecil.Rocks.dll_7D9ACB1D5593CB8B.mvfrm
Library\Bee\artifacts\mvdfrm\Unity.Burst.Unsafe.dll_54F5999F28293D98.mvfrm