Library\Bee\artifacts\movedfrom\UnityEditor.TestRunner.ref.dll_1637517530421217876.movedfrom
Library\Bee\artifacts\movedfrom\UnityEditor.UI.ref.dll_16330212486979997462.movedfrom
Library\Bee\artifacts\movedfrom\UnityEngine.TestRunner.ref.dll_16345793075378825279.movedfrom
Library\Bee\artifacts\movedfrom\UnityEngine.UI.ref.dll_11458960751481943937.movedfrom
Library\Bee\artifacts\movedfrom\UnityEditor.Graphs.dll_9882552335151196894.movedfrom
Library\Bee\artifacts\movedfrom\UnityEditor.CoreModule.dll_8888551076800629932.movedfrom
Library\Bee\artifacts\movedfrom\UnityEditor.DeviceSimulatorModule.dll_4114021298936812757.movedfrom
Library\Bee\artifacts\movedfrom\UnityEditor.dll_5968796255815236905.movedfrom
Library\Bee\artifacts\movedfrom\UnityEditor.GraphViewModule.dll_12973894711469068122.movedfrom
Library\Bee\artifacts\movedfrom\UnityEditor.PackageManagerUIModule.dll_5657616493529193224.movedfrom
Library\Bee\artifacts\movedfrom\UnityEditor.QuickSearchModule.dll_17193908939613242940.movedfrom
Library\Bee\artifacts\movedfrom\UnityEditor.SceneTemplateModule.dll_4001872265519440957.movedfrom
Library\Bee\artifacts\movedfrom\UnityEditor.UIBuilderModule.dll_618459471473494158.movedfrom
Library\Bee\artifacts\movedfrom\UnityEditor.UIElementsModule.dll_8433252377494099048.movedfrom
Library\Bee\artifacts\movedfrom\UnityEditor.UIElementsSamplesModule.dll_4032699977283029893.movedfrom
Library\Bee\artifacts\movedfrom\UnityEditor.UIServiceModule.dll_4721820798478620840.movedfrom
Library\Bee\artifacts\movedfrom\UnityEditor.UnityConnectModule.dll_7810006993352855906.movedfrom
Library\Bee\artifacts\movedfrom\UnityEngine.AccessibilityModule.dll_7651313634865073114.movedfrom
Library\Bee\artifacts\movedfrom\UnityEngine.AIModule.dll_2755630436872027520.movedfrom
Library\Bee\artifacts\movedfrom\UnityEngine.AndroidJNIModule.dll_17533031418758726462.movedfrom
Library\Bee\artifacts\movedfrom\UnityEngine.AnimationModule.dll_9408587696379241472.movedfrom
Library\Bee\artifacts\movedfrom\UnityEngine.ARModule.dll_16118590099471490121.movedfrom
Library\Bee\artifacts\movedfrom\UnityEngine.AssetBundleModule.dll_3640663348337851182.movedfrom
Library\Bee\artifacts\movedfrom\UnityEngine.AudioModule.dll_12354267331256124658.movedfrom
Library\Bee\artifacts\movedfrom\UnityEngine.ClothModule.dll_1322802276482999254.movedfrom
Library\Bee\artifacts\movedfrom\UnityEngine.ClusterInputModule.dll_17005360268569797672.movedfrom
Library\Bee\artifacts\movedfrom\UnityEngine.ClusterRendererModule.dll_4522936757582307929.movedfrom
Library\Bee\artifacts\movedfrom\UnityEngine.CoreModule.dll_11419806419342555095.movedfrom
Library\Bee\artifacts\movedfrom\UnityEngine.CrashReportingModule.dll_17902736703628367823.movedfrom
Library\Bee\artifacts\movedfrom\UnityEngine.DirectorModule.dll_16816502210675573684.movedfrom
Library\Bee\artifacts\movedfrom\UnityEngine.dll_9617915749003692558.movedfrom
Library\Bee\artifacts\movedfrom\UnityEngine.DSPGraphModule.dll_17199696759497184469.movedfrom
Library\Bee\artifacts\movedfrom\UnityEngine.GameCenterModule.dll_2134461346704618543.movedfrom
Library\Bee\artifacts\movedfrom\UnityEngine.GIModule.dll_13725353552035046810.movedfrom
Library\Bee\artifacts\movedfrom\UnityEngine.GridModule.dll_8929628009807744462.movedfrom
Library\Bee\artifacts\movedfrom\UnityEngine.HotReloadModule.dll_277748384247234434.movedfrom
Library\Bee\artifacts\movedfrom\UnityEngine.ImageConversionModule.dll_12301213723567381069.movedfrom
Library\Bee\artifacts\movedfrom\UnityEngine.IMGUIModule.dll_16416407983928219859.movedfrom
Library\Bee\artifacts\movedfrom\UnityEngine.InputLegacyModule.dll_14108466075442606367.movedfrom
Library\Bee\artifacts\movedfrom\UnityEngine.InputModule.dll_1290549982401931670.movedfrom
Library\Bee\artifacts\movedfrom\UnityEngine.JSONSerializeModule.dll_14575467477748657252.movedfrom
Library\Bee\artifacts\movedfrom\UnityEngine.LocalizationModule.dll_3047801579519399713.movedfrom
Library\Bee\artifacts\movedfrom\UnityEngine.ParticleSystemModule.dll_5441920077260612445.movedfrom
Library\Bee\artifacts\movedfrom\UnityEngine.PerformanceReportingModule.dll_17774530416131875734.movedfrom
Library\Bee\artifacts\movedfrom\UnityEngine.Physics2DModule.dll_14931672031191145365.movedfrom
Library\Bee\artifacts\movedfrom\UnityEngine.PhysicsModule.dll_5086430403762430467.movedfrom
Library\Bee\artifacts\movedfrom\UnityEngine.ProfilerModule.dll_1992403993895963329.movedfrom
Library\Bee\artifacts\movedfrom\UnityEngine.RuntimeInitializeOnLoadManagerInitializerModule.dll_10621098661146310238.movedfrom
Library\Bee\artifacts\movedfrom\UnityEngine.ScreenCaptureModule.dll_16442118835401906374.movedfrom
Library\Bee\artifacts\movedfrom\UnityEngine.SharedInternalsModule.dll_3370926224016856477.movedfrom
Library\Bee\artifacts\movedfrom\UnityEngine.SpriteMaskModule.dll_489647546169362857.movedfrom
Library\Bee\artifacts\movedfrom\UnityEngine.SpriteShapeModule.dll_5469456139644597048.movedfrom
Library\Bee\artifacts\movedfrom\UnityEngine.StreamingModule.dll_3974129775237356350.movedfrom
Library\Bee\artifacts\movedfrom\UnityEngine.SubstanceModule.dll_1428210915918371148.movedfrom
Library\Bee\artifacts\movedfrom\UnityEngine.SubsystemsModule.dll_8176560255419347388.movedfrom
Library\Bee\artifacts\movedfrom\UnityEngine.TerrainModule.dll_6979766813080939249.movedfrom
Library\Bee\artifacts\movedfrom\UnityEngine.TerrainPhysicsModule.dll_5476445649034698218.movedfrom
Library\Bee\artifacts\movedfrom\UnityEngine.TextCoreModule.dll_9375099780544459716.movedfrom
Library\Bee\artifacts\movedfrom\UnityEngine.TextRenderingModule.dll_967594431129278651.movedfrom
Library\Bee\artifacts\movedfrom\UnityEngine.TilemapModule.dll_18435912169351334906.movedfrom
Library\Bee\artifacts\movedfrom\UnityEngine.TLSModule.dll_809432350701861399.movedfrom
Library\Bee\artifacts\movedfrom\UnityEngine.UIElementsModule.dll_8482349179484843443.movedfrom
Library\Bee\artifacts\movedfrom\UnityEngine.UIElementsNativeModule.dll_11024135478464695082.movedfrom
Library\Bee\artifacts\movedfrom\UnityEngine.UIModule.dll_2427886006662988588.movedfrom
Library\Bee\artifacts\movedfrom\UnityEngine.UmbraModule.dll_2758411646683754597.movedfrom
Library\Bee\artifacts\movedfrom\UnityEngine.UNETModule.dll_3540274988650229072.movedfrom
Library\Bee\artifacts\movedfrom\UnityEngine.UnityAnalyticsModule.dll_7720584025212368217.movedfrom
Library\Bee\artifacts\movedfrom\UnityEngine.UnityConnectModule.dll_6467798029287363085.movedfrom
Library\Bee\artifacts\movedfrom\UnityEngine.UnityCurlModule.dll_13091583525367289325.movedfrom
Library\Bee\artifacts\movedfrom\UnityEngine.UnityTestProtocolModule.dll_17562276260353777883.movedfrom
Library\Bee\artifacts\movedfrom\UnityEngine.UnityWebRequestAssetBundleModule.dll_9167506767235363562.movedfrom
Library\Bee\artifacts\movedfrom\UnityEngine.UnityWebRequestAudioModule.dll_7973663942269824558.movedfrom
Library\Bee\artifacts\movedfrom\UnityEngine.UnityWebRequestModule.dll_13570955770418787532.movedfrom
Library\Bee\artifacts\movedfrom\UnityEngine.UnityWebRequestTextureModule.dll_15214077739706725827.movedfrom
Library\Bee\artifacts\movedfrom\UnityEngine.UnityWebRequestWWWModule.dll_5581627502509875455.movedfrom
Library\Bee\artifacts\movedfrom\UnityEngine.VehiclesModule.dll_6999492298867037007.movedfrom
Library\Bee\artifacts\movedfrom\UnityEngine.VFXModule.dll_10095459434197721988.movedfrom
Library\Bee\artifacts\movedfrom\UnityEngine.VideoModule.dll_15023077179515609239.movedfrom
Library\Bee\artifacts\movedfrom\UnityEngine.VirtualTexturingModule.dll_13657813748744309685.movedfrom
Library\Bee\artifacts\movedfrom\UnityEngine.VRModule.dll_8395760818268178596.movedfrom
Library\Bee\artifacts\movedfrom\UnityEngine.WindModule.dll_1498054457573373504.movedfrom
Library\Bee\artifacts\movedfrom\UnityEngine.XRModule.dll_12052335189989185026.movedfrom
Library\Bee\artifacts\movedfrom\UnityEditor.Android.Extensions.dll_18273133011838041428.movedfrom
Library\Bee\artifacts\movedfrom\UnityEditor.iOS.Extensions.Common.dll_15053896743424198577.movedfrom
Library\Bee\artifacts\movedfrom\UnityEditor.iOS.Extensions.dll_3084839110483803108.movedfrom
Library\Bee\artifacts\movedfrom\UnityEditor.iOS.Extensions.Xcode.dll_671254766454008363.movedfrom
Library\Bee\artifacts\movedfrom\UnityEditor.LinuxStandalone.Extensions.dll_1007274195289552868.movedfrom
Library\Bee\artifacts\movedfrom\UnityEditor.OSXStandalone.Extensions.dll_13756748389663602527.movedfrom
Library\Bee\artifacts\movedfrom\UnityEditor.WindowsStandalone.Extensions.dll_11198579524184013748.movedfrom
Library\Bee\artifacts\movedfrom\Unity.Plastic.Antlr3.Runtime.dll_15075584476252319983.movedfrom
Library\Bee\artifacts\movedfrom\Unity.Plastic.Newtonsoft.Json.dll_7859456191614294486.movedfrom